…
``` r
boot_data = 
  weather_df |> 
  modelr::bootstrap(n = 5000) |>
  mutate(
    models = map(strap, \(df) lm(tmax ~ tmin + prcp, data = df)),
    results = map(models, broom::tidy),
    glance = map(models, broom::glance))|>
  select(-strap,-models)|>
  unnest(glance,results)
boot_data
```

    ## # A tibble: 15,000 × 18
    ##    .id   term     estimate std.error statistic   p.value r.squared adj.r.squared
    ##    <chr> <chr>       <dbl>     <dbl>     <dbl>     <dbl>     <dbl>         <dbl>
    ##  1 0001  (Interc…  8.50      0.241       35.3  2.30e-119     0.898         0.898
    ##  2 0001  tmin      0.972     0.0172      56.6  8.29e-182     0.898         0.898
    ##  3 0001  prcp      0.00449   0.00211      2.12 3.46e-  2     0.898         0.898
    ##  4 0002  (Interc…  7.99      0.207       38.6  2.90e-130     0.928         0.928
    ##  5 0002  tmin      1.02      0.0149      68.4  4.78e-209     0.928         0.928
    ##  6 0002  prcp     -0.00702   0.00198     -3.55 4.35e-  4     0.928         0.928
    ##  7 0003  (Interc…  8.10      0.209       38.7  7.88e-131     0.925         0.925
    ##  8 0003  tmin      1.03      0.0154      66.9  8.45e-206     0.925         0.925
    ##  9 0003  prcp     -0.00776   0.00177     -4.38 1.58e-  5     0.925         0.925
    ## 10 0004  (Interc…  8.18      0.202       40.6  9.96e-137     0.931         0.931
    ## # ℹ 14,990 more rows
    ## # ℹ 10 more variables: sigma <dbl>, statistic1 <dbl>, p.value1 <dbl>, df <dbl>,
    ## #   logLik <dbl>, AIC <dbl>, BIC <dbl>, deviance <dbl>, df.residual <int>,
    ## #   nobs <int>
…
